('2014-01-20', 63003)
('2014-01-21', 72577)
('2013-11-01', 45371)
('2013-11-02', 39181)
('2013-12-31', 48847)
('2013-12-23', 54267)
('2013-12-24', 55865)
('2013-12-12', 58219)
('2013-12-13', 60115)
('2013-12-28', 48009)
('2013-12-15', 52308)
('2013-12-16', 69382)
('2014-01-12', 50537)
('2014-01-13', 53461)
('2014-01-17', 59026)
('2014-01-09', 59031)
('2014-01-10', 54166)
('2014-01-11', 55856)
('2013-12-01', 72142)
('2013-12-02', 75570)
('2013-12-20', 65083)
('2013-12-10', 67623)
('2013-12-11', 67305)
('2013-12-06', 72099)
('2013-11-20', 77558)
('2013-11-21', 71822)
('2014-01-15', 61612)
('2014-01-16', 56703)
('2013-12-18', 81510)
('2013-12-19', 70278)
('2013-12-29', 51325)
('2013-12-30', 55613)
('2013-11-30', 75190)
('2014-01-26', 53582)
('2014-01-27', 64374)
('2014-01-28', 65762)
('2013-11-14', 69413)
('2013-11-15', 60914)
('2014-01-14', 57378)
('2013-12-26', 51276)
('2013-12-27', 52674)
('2013-12-04', 79624)
('2013-12-05', 83283)
('2014-01-31', 60269)
('2014-01-06', 67358)
('2014-01-07', 62911)
('2013-11-22', 76947)
('2013-12-07', 67712)
('2013-12-08', 47477)
('2013-11-05', 51597)
('2014-01-23', 63576)
('2014-01-24', 65600)
('2014-01-04', 52052)
('2014-01-05', 58662)
('2014-01-25', 53864)
('2014-01-08', 61439)
('2013-11-19', 92907)
('2013-11-17', 51323)
('2013-11-18', 79032)
('2013-11-26', 83383)
('2013-11-27', 95531)
('2013-11-28', 98921)
('2013-11-29', 90084)
('2014-01-01', 43070)
('2014-01-02', 54770)
('2013-12-17', 67740)
('2013-11-09', 55204)
('2013-11-10', 57538)
('2013-11-16', 47175)
('2013-11-03', 35947)
('2013-11-04', 45523)
('2014-01-29', 59682)
('2014-01-30', 60799)
('2013-12-25', 55428)
('2013-11-12', 58307)
('2013-11-13', 64870)
('2014-01-22', 65835)
('2013-12-14', 54057)
('2013-12-03', 77667)
('2014-01-03', 60980)
('2013-12-09', 63625)
('2013-11-11', 57405)
('2014-01-18', 51573)
('2014-01-19', 48005)
('2013-11-06', 55008)
('2013-11-07', 60535)
('2013-11-08', 59223)
('2013-11-23', 72545)
('2013-11-24', 60861)
('2013-11-25', 71793)
('2013-12-21', 56083)
('2013-12-22', 52897)
